<?xml version="1.0" encoding="utf-8"?>
<!-- Generator: Adobe Illustrator 21.0.2, SVG Export Plug-In . SVG Version: 6.00 Build 0)  -->
<svg version="1.1" id="Слой_1" xmlns="http://www.w3.org/2000/svg" xmlns:xlink="http://www.w3.org/1999/xlink" x="0px" y="0px"
	 viewBox="0 0 76.238 76.537" style="enable-background:new 0 0 76.238 76.537;" xml:space="preserve">
<style type="text/css">
	.st0{fill:#4C4C4E;}
	.st1{fill:#FFFFFF;}
	.st2{fill:#4A76A8;}
	.st3{fill:#445990;}
	.st4{fill:#55ABED;}
	.st5{fill:#D6282B;}
</style>
<g>
	<path class="st5" d="M38.125,0C17.721-0.077,0.551,16.709,0.012,37.19c-0.539,22.021,17.401,39.114,37.574,39.345
		c20.943,0.231,38.652-17.016,38.652-38.267C76.238,17.016,58.683-0.077,38.125,0z"/>
	<g>
		<g>
			<path class="st1" d="M49.889,48.868c-0.344,0-0.59,0.105-0.74,0.315c-0.149,0.21-0.226,0.558-0.226,1.044v1.175h1.907v-1.175
				c0-0.486-0.075-0.834-0.224-1.044C50.457,48.973,50.217,48.868,49.889,48.868z"/>
			<path class="st1" d="M55.66,44.435c0-2.802-2.3-5.076-5.135-5.076c-3.845-0.16-7.774-0.236-11.779-0.236
				c-0.209,0-0.418,0-0.627,0c-0.209,0-0.419,0-0.627,0c-4.004,0-7.934,0.076-11.78,0.236c-2.835,0-5.135,2.274-5.135,5.076
				c-0.17,2.22-0.244,4.439-0.237,6.658c-0.006,2.22,0.067,4.439,0.237,6.66c0,2.802,2.3,5.076,5.135,5.076
				c3.862,0.161,7.812,0.236,11.835,0.236c0.191,0,0.381,0,0.572,0c0.19,0,0.38,0,0.571,0c4.024,0,7.972-0.075,11.835-0.236
				c2.835,0,5.135-2.274,5.135-5.076c0.17-2.221,0.244-4.439,0.239-6.66C55.904,48.874,55.83,46.655,55.66,44.435z M28.13,58.733
				h-2.429V45.286h-2.513v-2.283h7.457v2.283H28.13V58.733z M36.773,58.733h-2.157v-1.282c-0.397,0.474-0.811,0.832-1.241,1.079
				c-0.43,0.247-0.848,0.37-1.252,0.37c-0.498,0-0.875-0.172-1.127-0.517c-0.253-0.346-0.38-0.864-0.38-1.555V47.13h2.157v8.894
				c0,0.276,0.045,0.475,0.137,0.597c0.09,0.124,0.236,0.184,0.439,0.184c0.158,0,0.358-0.08,0.601-0.243
				c0.242-0.163,0.464-0.371,0.666-0.624V47.13h2.157V58.733z M45.077,56.329c0,0.825-0.168,1.456-0.506,1.895
				c-0.339,0.438-0.826,0.657-1.466,0.657c-0.422,0-0.798-0.085-1.128-0.256c-0.33-0.168-0.636-0.43-0.922-0.783v0.892h-2.177
				v-15.73h2.177v5.064c0.292-0.355,0.601-0.623,0.927-0.807c0.328-0.184,0.658-0.277,0.993-0.277c0.681,0,1.203,0.249,1.562,0.743
				c0.361,0.497,0.54,1.218,0.54,2.166V56.329z M53.05,53.203h-4.126v2.19c0,0.609,0.072,1.034,0.215,1.269
				c0.142,0.236,0.385,0.354,0.727,0.354c0.358,0,0.609-0.101,0.751-0.299c0.142-0.2,0.213-0.64,0.213-1.324v-0.806h2.22v0.872
				c0,1.188-0.269,2.084-0.811,2.687c-0.54,0.602-1.348,0.902-2.422,0.902c-0.965,0-1.725-0.319-2.282-0.956
				c-0.554-0.64-0.831-1.517-0.831-2.633v-5.209c0-1.008,0.304-1.829,0.913-2.463c0.61-0.633,1.398-0.95,2.363-0.95
				c0.987,0,1.746,0.293,2.277,0.881c0.528,0.587,0.793,1.43,0.793,2.532V53.203z"/>
			<path class="st1" d="M41.956,48.826c-0.154,0-0.306,0.038-0.455,0.114c-0.151,0.077-0.299,0.194-0.447,0.354v7.231
				c0.177,0.189,0.347,0.325,0.512,0.407c0.164,0.085,0.338,0.125,0.52,0.125c0.265,0,0.458-0.082,0.582-0.244
				c0.124-0.163,0.187-0.43,0.187-0.8v-5.99c0-0.392-0.077-0.689-0.231-0.892C42.471,48.928,42.249,48.826,41.956,48.826z"/>
		</g>
		<polygon class="st1" points="33.309,13.472 29.698,13.472 27.502,22.667 27.277,22.667 24.972,13.472 21.393,13.472 
			21.393,13.473 25.62,27.36 25.62,36.477 29.173,36.477 29.173,26.932 33.309,13.472 		"/>
		<path class="st1" d="M34.39,35.626c0.825,0.85,1.925,1.276,3.298,1.28h0.03c1.427-0.003,2.547-0.417,3.363-1.239
			c0.815-0.826,1.223-1.964,1.224-3.416v-8.771c-0.001-1.293-0.416-2.35-1.248-3.169c-0.834-0.822-1.903-1.231-3.21-1.231
			c-1.434,0-2.577,0.388-3.424,1.168c-0.85,0.779-1.276,1.826-1.276,3.14l0.001,8.798C33.149,33.626,33.563,34.774,34.39,35.626
			L34.39,35.626z M36.396,23.259L36.396,23.259c0-0.371,0.121-0.671,0.361-0.9c0.241-0.227,0.552-0.34,0.937-0.34
			c0.417,0,0.755,0.113,1.011,0.34c0.256,0.229,0.386,0.529,0.386,0.9v9.242c0,0.457-0.126,0.812-0.378,1.073
			c-0.251,0.261-0.59,0.391-1.019,0.391c-0.417,0-0.737-0.127-0.963-0.381c-0.224-0.256-0.336-0.616-0.336-1.083V23.259
			L36.396,23.259z"/>
		<path class="st1" d="M50.837,19.507v12.882c-0.298,0.368-0.622,0.674-0.977,0.912c-0.354,0.239-0.646,0.357-0.879,0.357
			c-0.296,0-0.51-0.09-0.641-0.27c-0.131-0.18-0.197-0.47-0.197-0.873V19.507h-3.156v14.19c0.001,1.007,0.185,1.763,0.554,2.267
			c0.37,0.504,0.92,0.755,1.649,0.755c0.59,0,1.201-0.18,1.833-0.539c0.627-0.361,1.232-0.887,1.815-1.576v1.872h3.154v-16.97
			H50.837L50.837,19.507z"/>
	</g>
</g>
</svg>
